^G:\SUBJECTS\ТРСПО\TRSPO4\TRSPO4\DEBUG\STDAFX.OBJ|G:\SUBJECTS\ТРСПО\TRSPO4\TRSPO4\DEBUG\TRSPO4.OBJ
G:\SUBJECTS\ТРСПО\TRSPO4\DEBUG\TRSPO4.ILK
G:\SUBJECTS\ТРСПО\TRSPO4\DEBUG\TRSPO4.EXE
G:\SUBJECTS\ТРСПО\TRSPO4\DEBUG\TRSPO4.PDB
^E:\SUBJECTS\ТРСПО\TRSPO4\TRSPO4\DEBUG\STDAFX.OBJ|E:\SUBJECTS\ТРСПО\TRSPO4\TRSPO4\DEBUG\TRSPO4.OBJ
E:\SUBJECTS\ТРСПО\TRSPO4\DEBUG\TRSPO4.ILK
E:\SUBJECTS\ТРСПО\TRSPO4\DEBUG\TRSPO4.EXE
E:\SUBJECTS\ТРСПО\TRSPO4\DEBUG\TRSPO4.PDB
^C:\USERS\HP\DESKTOP\TRSPO\OPENMP\TRSPO4\TRSPO4\DEBUG\STDAFX.OBJ|C:\USERS\HP\DESKTOP\TRSPO\OPENMP\TRSPO4\TRSPO4\DEBUG\TRSPO4.OBJ
C:\USERS\HP\DESKTOP\TRSPO\OPENMP\TRSPO4\DEBUG\TRSPO4.ILK
C:\USERS\HP\DESKTOP\TRSPO\OPENMP\TRSPO4\DEBUG\TRSPO4.EXE
C:\USERS\HP\DESKTOP\TRSPO\OPENMP\TRSPO4\DEBUG\TRSPO4.PDB
