^C:\USERS\HP\DESKTOP\TRSPO\OPENMP\TRSPO\TRSPO\STDAFX.CPP
C:\USERS\HP\DESKTOP\TRSPO\OPENMP\TRSPO\TRSPO\DEBUG\TRSPO.PCH
C:\USERS\HP\DESKTOP\TRSPO\OPENMP\TRSPO\TRSPO\DEBUG\VC120.PDB
C:\USERS\HP\DESKTOP\TRSPO\OPENMP\TRSPO\TRSPO\DEBUG\VC120.IDB
C:\USERS\HP\DESKTOP\TRSPO\OPENMP\TRSPO\TRSPO\DEBUG\STDAFX.OBJ
^C:\USERS\HP\DESKTOP\TRSPO\OPENMP\TRSPO\TRSPO\TRSPO.CPP
C:\USERS\HP\DESKTOP\TRSPO\OPENMP\TRSPO\TRSPO\DEBUG\VC120.PDB
C:\USERS\HP\DESKTOP\TRSPO\OPENMP\TRSPO\TRSPO\DEBUG\VC120.IDB
C:\USERS\HP\DESKTOP\TRSPO\OPENMP\TRSPO\TRSPO\DEBUG\TRSPO.OBJ
