^C:\USERS\HP\DESKTOP\TRSPO\OPENMP\TRSPO\TRSPO\DEBUG\STDAFX.OBJ|C:\USERS\HP\DESKTOP\TRSPO\OPENMP\TRSPO\TRSPO\DEBUG\TRSPO.OBJ
C:\USERS\HP\DESKTOP\TRSPO\OPENMP\TRSPO\DEBUG\TRSPO.ILK
C:\USERS\HP\DESKTOP\TRSPO\OPENMP\TRSPO\DEBUG\TRSPO.EXE
C:\USERS\HP\DESKTOP\TRSPO\OPENMP\TRSPO\DEBUG\TRSPO.PDB
