^C:\USERS\HP\DESKTOP\TRSPO\OPENMP\TRSPO3\TRSPO3\STDAFX.CPP
/c /ZI /nologo /W3 /WX- /sdl /Od /Oy- /D WIN32 /D _DEBUG /D _CONSOLE /D _LIB /D _UNICODE /D UNICODE /Gm /EHsc /RTC1 /MDd /GS /fp:precise /Zc:wchar_t /Zc:forScope /openmp /Yc"stdafx.h" /Fp"DEBUG\TRSPO3.PCH" /Fo"DEBUG\\" /Fd"DEBUG\VC120.PDB" /Gd /TP /analyze- C:\USERS\HP\DESKTOP\TRSPO\OPENMP\TRSPO3\TRSPO3\STDAFX.CPP
^C:\USERS\HP\DESKTOP\TRSPO\OPENMP\TRSPO3\TRSPO3\TRSPO3.CPP
/c /ZI /nologo /W3 /WX- /sdl /Od /Oy- /D WIN32 /D _DEBUG /D _CONSOLE /D _LIB /D _UNICODE /D UNICODE /Gm /EHsc /RTC1 /MDd /GS /fp:precise /Zc:wchar_t /Zc:forScope /openmp /Yu"stdafx.h" /Fp"DEBUG\TRSPO3.PCH" /Fo"DEBUG\\" /Fd"DEBUG\VC120.PDB" /Gd /TP /analyze- C:\USERS\HP\DESKTOP\TRSPO\OPENMP\TRSPO3\TRSPO3\TRSPO3.CPP
