^C:\USERS\HP\DESKTOP\TRSPO\OPENMP\TRSPO3\TRSPO3\DEBUG\STDAFX.OBJ|C:\USERS\HP\DESKTOP\TRSPO\OPENMP\TRSPO3\TRSPO3\DEBUG\TRSPO3.OBJ
C:\USERS\HP\DESKTOP\TRSPO\OPENMP\TRSPO3\DEBUG\TRSPO3.ILK
C:\USERS\HP\DESKTOP\TRSPO\OPENMP\TRSPO3\DEBUG\TRSPO3.EXE
C:\USERS\HP\DESKTOP\TRSPO\OPENMP\TRSPO3\DEBUG\TRSPO3.PDB
